Prepare Performance Data — prepare_performance_data • rtichoke
…
    Examples

# You can prepare Performance Data for one model

prepare_performance_data(
  probs = example_dat$estimated_probabilities,
  real = example_dat$outcome
)
#> # A tibble: 101 × 14
#>    threshold    TP    TN    FN    FP sensitivity   FPR  lift specificity   PPV
#>        <dbl> <int> <int> <int> <int>       <dbl> <dbl> <dbl>       <dbl> <dbl>
#>  1      0       50     0     0   100           1  1     1           0    0.333
#>  2      0.01    50    51     0    49           1  0.49  1.52        0.51 0.505
#>  3      0.02    50    55     0    45           1  0.45  1.58        0.55 0.526
#>  4      0.03    50    61     0    39           1  0.39  1.69        0.61 0.562
#>  5      0.04    50    67     0    33           1  0.33  1.81        0.67 0.602
#>  6      0.05    50    67     0    33           1  0.33  1.81        0.67 0.602
#>  7      0.06    50    67     0    33           1  0.33  1.81        0.67 0.602
#>  8      0.07    50    70     0    30           1  0.3   1.88        0.7  0.625
#>  9      0.08    50    70     0    30           1  0.3   1.88        0.7  0.625
#> 10      0.09    50    70     0    30           1  0.3   1.88        0.7  0.625
#> # … with 91 more rows, and 4 more variables: NPV <dbl>, positives <int>,
#> #   NB <dbl>, predicted_positives_percent <dbl>

# And you can prepare Performance Data for more than one model
prepare_performance_data(
  probs = list(
    "First Model" = example_dat$estimated_probabilities,
    "Second Model" = example_dat$random_guess
  ),
  real = example_dat$outcome
)
#> # A tibble: 202 × 15
#>    model   threshold    TP    TN    FN    FP sensitivity   FPR  lift specificity
#>    <chr>       <dbl> <int> <int> <int> <int>       <dbl> <dbl> <dbl>       <dbl>
#>  1 First …      0       50     0     0   100           1  1     1           0   
#>  2 First …      0.01    50    51     0    49           1  0.49  1.52        0.51
#>  3 First …      0.02    50    55     0    45           1  0.45  1.58        0.55
#>  4 First …      0.03    50    61     0    39           1  0.39  1.69        0.61
#>  5 First …      0.04    50    67     0    33           1  0.33  1.81        0.67
#>  6 First …      0.05    50    67     0    33           1  0.33  1.81        0.67
#>  7 First …      0.06    50    67     0    33           1  0.33  1.81        0.67
#>  8 First …      0.07    50    70     0    30           1  0.3   1.88        0.7 
#>  9 First …      0.08    50    70     0    30           1  0.3   1.88        0.7 
#> 10 First …      0.09    50    70     0    30           1  0.3   1.88        0.7 
#> # … with 192 more rows, and 5 more variables: PPV <dbl>, NPV <dbl>,
#> #   positives <int>, NB <dbl>, predicted_positives_percent <dbl>
…
  probs = list(
    "train" = example_dat %.html'>%>%
      dplyr::filter(type_of_set == "train") %.html'>%>%
      dplyr::pull(estimated_probabilities),
    "test" = example_dat %.html'>%>% dplyr::filter(type_of_set == "test") %.html'>%>%
      dplyr::pull(estimated_probabilities)
  ),
  real = list(
    "train" = example_dat %.html'>%>% dplyr::filter(type_of_set == "train") %.html'>%>%
      dplyr::pull(outcome),
    "test" = example_dat %.html'>%>% dplyr::filter(type_of_set == "test") %.html'>%>%
      dplyr::pull(outcome)
  )
)
#> # A tibble: 202 × 15
#>    population threshold    TP    TN    FN    FP sensitivity   FPR  lift
#>    <chr>          <dbl> <int> <int> <int> <int>       <dbl> <dbl> <dbl>
#>  1 train           0       28     0     0    68           1 1      1   
#>  2 train           0.01    28    36     0    32           1 0.471  1.6 
#>  3 train           0.02    28    39     0    29           1 0.426  1.68
#>  4 train           0.03    28    43     0    25           1 0.368  1.81
#>  5 train           0.04    28    46     0    22           1 0.324  1.92
#>  6 train           0.05    28    46     0    22           1 0.324  1.92
#>  7 train           0.06    28    46     0    22           1 0.324  1.92
#>  8 train           0.07    28    48     0    20           1 0.294  2   
#>  9 train           0.08    28    48     0    20           1 0.294  2   
#> 10 train           0.09    28    48     0    20           1 0.294  2   
#> # … with 192 more rows, and 6 more variables: specificity <dbl>, PPV <dbl>,
#> #   NPV <dbl>, positives <int>, NB <dbl>, predicted_positives_percent <dbl>
…
